<?xml version="1.0" encoding="utf-8" standalone="no"?>
<!DOCTYPE svg PUBLIC "-//W3C//DTD SVG 1.1//EN"
  "http://www.w3.org/Graphics/SVG/1.1/DTD/svg11.dtd">
<svg xmlns:xlink="http://www.w3.org/1999/xlink" width="460.8pt" height="345.6pt" viewBox="0 0 460.8 345.6" xmlns="http://www.w3.org/2000/svg" version="1.1">
 <metadata>
  <rdf:RDF xmlns:dc="http://purl.org/dc/elements/1.1/" xmlns:cc="http://creativecommons.org/ns#" xmlns:rdf="http://www.w3.org/1999/02/22-rdf-syntax-ns#">
   <cc:Work>
    <dc:type rdf:resource="http://purl.org/dc/dcmitype/StillImage"/>
    <dc:date>2024-06-04T16:28:48.337580</dc:date>
    <dc:format>image/svg+xml</dc:format>
    <dc:creator>
     <cc:Agent>
      <dc:title>Matplotlib v3.8.2, https://matplotlib.org/</dc:title>
     </cc:Agent>
    </dc:creator>
   </cc:Work>
  </rdf:RDF>
 </metadata>
 <defs>
  <style type="text/css">*{stroke-linejoin: round; stroke-linecap: butt}</style>
 </defs>
 <g id="figure_1">
  <g id="patch_1">
   <path d="M 0 345.6 
L 460.8 345.6 
L 460.8 0 
L 0 0 
z
" style="fill: #ffffff"/>
  </g>
  <g id="axes_1">
   <g id="patch_2">
    <path d="M 57.508052 312.24351 
L 457.79976 312.24351 
L 457.79976 18.118365 
L 57.508052 18.118365 
z
" style="fill: #ffffff"/>
   </g>
   <g id="matplotlib.axis_1">
    <g id="xtick_1">
     <g id="line2d_1">
      <defs>
       <path id="macf8b6f946" d="M 0 0 
L 0 3.5 
" style="stroke: #000000; stroke-width: 0.8"/>
      </defs>
      <g>
       <use xlink:href="#macf8b6f946" x="81.002667" y="312.24351" style="stroke: #000000; stroke-width: 0.8"/>
      </g>
     </g>
     <g id="text_1">
      <text style="font: 10px 'Roboto', sans-serif; text-anchor: middle" x="81.002667" y="326.841947" transform="rotate(-0 81.002667 326.841947)">−4000</text>
     </g>
    </g>
    <g id="xtick_2">
     <g id="line2d_2">
      <g>
       <use xlink:href="#macf8b6f946" x="169.328287" y="312.24351" style="stroke: #000000; stroke-width: 0.8"/>
      </g>
     </g>
     <g id="text_2">
      <text style="font: 10px 'Roboto', sans-serif; text-anchor: middle" x="169.328287" y="326.841947" transform="rotate(-0 169.328287 326.841947)">−2000</text>
     </g>
    </g>
    <g id="xtick_3">
     <g id="line2d_3">
      <g>
       <use xlink:href="#macf8b6f946" x="257.653906" y="312.24351" style="stroke: #000000; stroke-width: 0.8"/>
      </g>
     </g>
     <g id="text_3">
      <text style="font: 10px 'Roboto', sans-serif; text-anchor: middle" x="257.653906" y="326.841947" transform="rotate(-0 257.653906 326.841947)">0</text>
     </g>
    </g>
    <g id="xtick_4">
     <g id="line2d_4">
      <g>
       <use xlink:href="#macf8b6f946" x="345.979526" y="312.24351" style="stroke: #000000; stroke-width: 0.8"/>
      </g>
     </g>
     <g id="text_4">
      <text style="font: 10px 'Roboto', sans-serif; text-anchor: middle" x="345.979526" y="326.841947" transform="rotate(-0 345.979526 326.841947)">2000</text>
     </g>
    </g>
    <g id="xtick_5">
     <g id="line2d_5">
      <g>
       <use xlink:href="#macf8b6f946" x="434.305145" y="312.24351" style="stroke: #000000; stroke-width: 0.8"/>
      </g>
     </g>
     <g id="text_5">
      <text style="font: 10px 'Roboto', sans-serif; text-anchor: middle" x="434.305145" y="326.841947" transform="rotate(-0 434.305145 326.841947)">4000</text>
     </g>
    </g>
    <g id="text_6">
     <text style="font: 10px 'Roboto', sans-serif; text-anchor: middle" x="257.653906" y="340.520072" transform="rotate(-0 257.653906 340.520072)">Lags</text>
    </g>
   </g>
   <g id="matplotlib.axis_2">
    <g id="ytick_1">
     <g id="line2d_6">
      <defs>
       <path id="m80266f9925" d="M 0 0 
L -3.5 0 
" style="stroke: #000000; stroke-width: 0.8"/>
      </defs>
      <g>
       <use xlink:href="#m80266f9925" x="57.508052" y="269.98623" style="stroke: #000000; stroke-width: 0.8"/>
      </g>
     </g>
     <g id="text_7">
      <text style="font: 10px 'Roboto', sans-serif; text-anchor: end" x="50.508052" y="273.785449" transform="rotate(-0 50.508052 273.785449)">−1000</text>
     </g>
    </g>
    <g id="ytick_2">
     <g id="line2d_7">
      <g>
       <use xlink:href="#m80266f9925" x="57.508052" y="205.481578" style="stroke: #000000; stroke-width: 0.8"/>
      </g>
     </g>
     <g id="text_8">
      <text style="font: 10px 'Roboto', sans-serif; text-anchor: end" x="50.508052" y="209.280797" transform="rotate(-0 50.508052 209.280797)">−500</text>
     </g>
    </g>
    <g id="ytick_3">
     <g id="line2d_8">
      <g>
       <use xlink:href="#m80266f9925" x="57.508052" y="140.976926" style="stroke: #000000; stroke-width: 0.8"/>
      </g>
     </g>
     <g id="text_9">
      <text style="font: 10px 'Roboto', sans-serif; text-anchor: end" x="50.508052" y="144.776145" transform="rotate(-0 50.508052 144.776145)">0</text>
     </g>
    </g>
    <g id="ytick_4">
     <g id="line2d_9">
      <g>
       <use xlink:href="#m80266f9925" x="57.508052" y="76.472274" style="stroke: #000000; stroke-width: 0.8"/>
      </g>
     </g>
     <g id="text_10">
      <text style="font: 10px 'Roboto', sans-serif; text-anchor: end" x="50.508052" y="80.271493" transform="rotate(-0 50.508052 80.271493)">500</text>
     </g>
    </g>
    <g id="text_11">
     <text style="font: 10px 'Roboto', sans-serif; text-anchor: middle" x="10.598678" y="165.180937" transform="rotate(-90 10.598678 165.180937)">Cross-correlation</text>
    </g>
   </g>
   <g id="line2d_10">
    <path d="M 75.70313 141.598218 
L 76.233084 147.648079 
L 76.277247 147.500395 
L 76.498061 146.043623 
L 76.939689 141.993193 
L 76.983852 142.018949 
L 77.11634 142.402235 
L 77.248828 143.222036 
L 78.441224 152.057232 
L 78.662038 152.726591 
L 78.706201 153.162638 
L 78.750364 152.912637 
L 79.015341 151.302405 
L 79.059504 151.606099 
L 79.147829 153.093727 
L 79.191992 152.755928 
L 80.296062 133.229437 
L 80.781853 128.004071 
L 81.311807 124.15485 
L 81.532621 123.760749 
L 81.665109 123.89117 
L 82.239226 124.718983 
L 82.415877 124.520454 
L 83.078319 123.229883 
L 83.122482 123.252309 
L 83.254971 123.494184 
L 83.608273 124.958925 
L 84.138227 127.342085 
L 84.359041 127.559029 
L 84.579855 127.543023 
L 84.800669 128.322257 
L 85.242297 131.804084 
L 85.639762 134.91746 
L 85.772251 134.936014 
L 85.860576 134.706881 
L 86.213879 132.756847 
L 86.920484 126.843831 
L 87.317949 120.912538 
L 88.245368 100.837322 
L 89.128624 83.874923 
L 89.393601 82.044195 
L 89.52609 81.89037 
L 89.658578 82.137671 
L 89.967718 83.497649 
L 90.365183 86.315142 
L 90.718485 90.733084 
L 91.292602 101.990491 
L 92.573323 133.966148 
L 93.368254 155.919766 
L 93.544905 156.506933 
L 93.589068 156.544491 
L 93.721556 155.850061 
L 93.898208 153.695267 
L 94.339836 144.914198 
L 95.841371 113.694564 
L 96.194674 111.501356 
L 96.680465 109.966226 
L 96.857116 109.465963 
L 97.033767 109.312294 
L 97.166256 109.546094 
L 97.917023 111.536479 
L 98.049512 111.543126 
L 98.226163 112.182307 
L 98.756117 115.123776 
L 99.506885 121.475179 
L 100.21349 127.933198 
L 100.655118 132.072902 
L 101.140909 136.164087 
L 101.31756 136.496817 
L 101.450048 136.330362 
L 101.715025 135.423122 
L 102.244979 133.553569 
L 102.509956 133.509356 
L 102.907421 133.876118 
L 103.349049 134.747269 
L 103.5257 135.767173 
L 103.790677 138.939945 
L 104.188142 147.492944 
L 105.424701 177.408144 
L 105.513027 177.637772 
L 105.557189 177.621612 
L 105.689678 177.046294 
L 105.910492 174.468331 
L 106.440446 164.139397 
L 106.970399 154.043205 
L 107.45619 148.553672 
L 107.76533 147.00504 
L 108.030307 146.642219 
L 108.251121 146.638361 
L 108.427772 146.999424 
L 108.692749 147.305719 
L 108.913563 147.858521 
L 109.17854 149.205384 
L 109.443517 151.768626 
L 109.929308 159.648807 
L 110.547587 168.243818 
L 110.989215 171.485689 
L 111.519169 174.634568 
L 111.69582 174.945907 
L 111.784146 174.849063 
L 111.916634 174.246584 
L 112.137448 171.533306 
L 112.446588 164.315845 
L 113.992286 121.7212 
L 114.345589 117.670392 
L 114.654728 116.030667 
L 115.405496 112.858516 
L 115.714636 111.807878 
L 115.802961 111.86496 
L 115.979613 112.54398 
L 116.244589 114.772429 
L 117.03952 122.755337 
L 117.216171 122.89617 
L 117.525311 122.643373 
L 117.569474 122.699763 
L 117.746125 123.239141 
L 117.922776 124.441643 
L 118.806032 132.377322 
L 119.689289 142.952986 
L 119.777614 142.856587 
L 119.910103 141.967539 
L 120.17508 137.809374 
L 121.146661 117.789375 
L 121.941592 111.51186 
L 121.985755 111.463319 
L 122.029918 111.517377 
L 122.162406 112.38702 
L 122.38322 115.883504 
L 122.736522 125.86172 
L 123.884756 160.187056 
L 124.458872 171.977298 
L 124.723849 174.188466 
L 124.812175 174.283824 
L 124.856337 174.212853 
L 124.988826 173.512599 
L 125.253803 170.334426 
L 126.31371 155.471579 
L 126.667013 153.056366 
L 126.931989 152.398291 
L 127.196966 151.955242 
L 127.41778 150.963109 
L 127.72692 148.330993 
L 128.345199 142.923799 
L 128.521851 142.109166 
L 129.095967 138.742512 
L 129.670084 134.421887 
L 129.714246 134.532094 
L 129.93506 136.568174 
L 130.376689 143.794583 
L 131.480759 160.036351 
L 132.054875 165.308258 
L 132.187364 165.635254 
L 132.231527 165.616599 
L 132.364015 165.112634 
L 132.584829 162.779254 
L 133.335597 152.744786 
L 133.423922 152.472129 
L 133.468085 152.560943 
L 133.644736 153.230096 
L 133.998039 155.67102 
L 134.79297 164.765839 
L 134.881295 164.613426 
L 135.057946 163.309466 
L 135.322923 159.097831 
L 136.073691 145.629368 
L 136.338668 144.201601 
L 136.471156 143.934246 
L 136.515319 143.950454 
L 136.647808 144.271601 
L 137.045273 146.131086 
L 137.354413 148.273501 
L 137.663552 152.39207 
L 138.502646 165.039506 
L 138.635134 165.246301 
L 138.72346 165.01416 
L 138.988436 162.616908 
L 139.297576 156.345732 
L 139.82753 140.490561 
L 140.666623 115.919969 
L 140.843274 114.686475 
L 140.887437 114.704026 
L 141.019926 115.784667 
L 141.196577 119.63331 
L 142.212322 145.845576 
L 142.300647 145.966273 
L 142.34481 145.882568 
L 142.477298 145.009235 
L 142.698112 141.435045 
L 144.287974 108.846859 
L 144.420462 108.647048 
L 144.464625 108.695705 
L 144.552951 109.323079 
L 145.921998 134.146076 
L 146.010323 134.058752 
L 146.142812 133.429529 
L 146.186974 133.493152 
L 146.407789 134.173402 
L 146.496114 132.729172 
L 147.335208 113.222644 
L 147.556022 108.990867 
L 148.218464 96.760379 
L 148.704255 90.662043 
L 148.969231 89.419719 
L 149.190046 89.210271 
L 149.41086 89.109996 
L 149.543348 88.741591 
L 149.764162 87.165324 
L 150.691581 78.934832 
L 150.824069 78.89202 
L 150.956558 79.131218 
L 151.177372 80.141722 
L 151.398186 82.380149 
L 151.707326 88.037306 
L 153.076373 119.041039 
L 153.34135 120.442691 
L 154.003792 121.802059 
L 154.13628 121.691487 
L 154.357094 121.122748 
L 154.622071 119.777629 
L 154.975374 116.560711 
L 155.417002 110.055979 
L 155.814467 100.078901 
L 156.874374 69.645522 
L 157.580979 58.590501 
L 158.06677 50.691164 
L 158.199259 50.096064 
L 158.243422 50.125845 
L 158.37591 50.837828 
L 158.596724 53.89601 
L 159.082515 65.563664 
L 159.568306 82.463764 
L 161.599795 161.403306 
L 161.864772 164.979441 
L 161.99726 165.386466 
L 162.085586 165.076831 
L 162.262237 162.990178 
L 162.571377 155.267142 
L 163.013005 134.807977 
L 163.763773 101.964701 
L 164.161238 92.788839 
L 164.514541 89.203792 
L 164.735355 88.634531 
L 164.867843 88.956702 
L 165.13282 90.401666 
L 165.92775 96.915214 
L 166.899332 104.265504 
L 167.208472 105.588722 
L 167.738426 109.090853 
L 168.268379 113.394591 
L 168.400868 113.54198 
L 168.533356 113.138852 
L 168.710007 111.795644 
L 169.239961 106.569408 
L 169.990729 102.505724 
L 170.47652 95.492264 
L 170.962311 92.832883 
L 171.138962 92.441228 
L 171.27145 92.290398 
L 171.403939 92.553827 
L 171.58059 93.612244 
L 171.757241 95.875979 
L 172.066381 103.063041 
L 172.817149 122.607205 
L 172.9938 123.315571 
L 173.082126 123.089774 
L 173.214614 122.005682 
L 173.700405 114.911731 
L 174.40701 105.326448 
L 175.20194 95.524405 
L 175.290266 95.329152 
L 175.776057 99.520144 
L 175.952708 100.997194 
L 176.129359 101.138591 
L 176.261848 101.130397 
L 176.570988 103.003321 
L 177.23343 114.437228 
L 177.675058 122.95067 
L 177.940035 124.720343 
L 178.116686 124.993899 
L 178.602477 123.745036 
L 178.911616 121.500821 
L 179.264919 116.193446 
L 179.662384 106.842315 
L 180.192338 88.194609 
L 180.943106 61.996847 
L 181.252245 58.02007 
L 181.384734 57.832422 
L 181.605548 59.279759 
L 181.738036 61.107675 
L 182.753781 79.19258 
L 183.857851 93.490364 
L 184.211154 95.564134 
L 184.343642 95.635066 
L 184.476131 95.261585 
L 184.608619 94.326389 
L 184.917759 90.701027 
L 185.315224 81.138526 
L 186.154317 59.714125 
L 186.419294 57.718574 
L 186.50762 57.7272 
L 186.905085 58.552659 
L 186.949248 58.48732 
L 187.081736 57.923795 
L 187.30255 55.559823 
L 187.700016 48.272493 
L 188.318295 37.442331 
L 188.892411 31.591306 
L 188.980737 31.495286 
L 189.069063 31.890569 
L 189.245714 34.358251 
L 189.510691 42.336148 
L 189.952319 64.679348 
L 190.923901 117.236257 
L 191.23304 123.725811 
L 191.365529 124.397618 
L 191.409692 124.335674 
L 191.54218 123.558121 
L 191.718831 120.8511 
L 192.116297 109.243323 
L 192.911227 85.892938 
L 193.706158 69.868438 
L 193.882809 69.040819 
L 193.971135 69.349885 
L 194.147786 71.316581 
L 194.501088 79.033193 
L 195.693484 108.08911 
L 196.267601 115.289825 
L 197.239183 126.742815 
L 197.945787 138.040833 
L 198.210764 139.431636 
L 198.387416 139.491516 
L 198.873206 139.213474 
L 198.917369 139.288417 
L 199.094021 140.003872 
L 199.933114 144.163812 
L 200.153928 143.879263 
L 200.50723 143.514217 
L 200.639719 143.600919 
L 200.860533 144.228459 
L 201.12551 145.819406 
L 201.478812 149.731246 
L 203.156999 172.250296 
L 203.598627 175.232483 
L 203.731116 175.360973 
L 203.907767 174.951945 
L 204.261069 173.363544 
L 204.526046 171.317048 
L 205.320977 164.014541 
L 206.115907 166.661508 
L 207.043326 178.664047 
L 207.352466 180.535559 
L 207.705768 182.00704 
L 208.147397 185.495681 
L 208.544862 190.708183 
L 209.163141 199.045507 
L 209.29563 199.301604 
L 209.428118 198.753092 
L 209.604769 196.668004 
L 209.913909 189.059552 
L 210.3997 170.500474 
L 211.238793 136.374565 
L 211.371282 133.758136 
L 211.768747 121.639248 
L 212.431189 103.106753 
L 212.652003 100.929881 
L 212.696166 100.838647 
L 212.740329 100.899433 
L 212.872817 101.658375 
L 213.093631 105.009869 
L 213.402771 113.826555 
L 214.771818 162.608361 
L 214.860144 162.936557 
L 214.904306 162.856926 
L 215.036795 161.813398 
L 215.257609 157.671377 
L 215.610911 146.265649 
L 216.273354 116.7616 
L 217.15661 79.11169 
L 217.421587 74.453699 
L 217.554075 74.008467 
L 217.598238 74.041863 
L 217.730726 74.763662 
L 217.95154 77.564339 
L 218.349006 85.869778 
L 219.850541 121.079187 
L 220.248006 123.933728 
L 220.601309 125.235324 
L 220.77796 125.079466 
L 220.954611 124.25657 
L 221.793705 118.676632 
L 221.837868 118.712233 
L 221.970356 119.27049 
L 222.147007 121.300622 
L 222.411984 127.083083 
L 223.383566 151.101958 
L 223.471892 151.234547 
L 223.560217 150.881688 
L 223.736868 148.915891 
L 224.178496 140.05707 
L 224.575962 134.423257 
L 224.752613 133.782606 
L 224.840939 133.958937 
L 224.973427 134.972856 
L 225.194241 138.70652 
L 225.591706 150.371279 
L 226.298311 170.365184 
L 226.651614 174.358643 
L 226.872428 175.093597 
L 227.004916 175.116299 
L 227.137405 174.695937 
L 227.402382 172.712033 
L 227.799847 170.021382 
L 227.888172 169.938055 
L 227.932335 169.988695 
L 228.064824 170.535685 
L 228.285638 172.801453 
L 229.389708 190.938896 
L 229.522196 191.089525 
L 229.831336 190.956582 
L 229.963825 191.291589 
L 230.184639 192.500027 
L 230.537941 195.981288 
L 231.200383 205.659124 
L 231.597849 209.673124 
L 231.818663 210.209177 
L 231.951151 209.958627 
L 232.657756 207.925096 
L 232.834407 207.872656 
L 233.011058 208.18495 
L 233.18771 209.055125 
L 233.320198 210.970742 
L 234.026803 222.097815 
L 234.468431 226.562976 
L 234.910059 234.99201 
L 235.351687 242.461032 
L 235.70499 244.96611 
L 236.367432 247.906385 
L 236.676572 248.3893 
L 236.897386 248.419308 
L 237.427339 247.685842 
L 237.736479 247.039215 
L 237.824805 247.209883 
L 238.001456 247.726473 
L 238.089782 247.614043 
L 238.22227 247.304283 
L 238.398921 246.144582 
L 238.663898 242.669109 
L 239.017201 234.412225 
L 240.342085 199.720663 
L 240.518736 198.750512 
L 240.607062 198.957626 
L 240.783713 200.630343 
L 241.04869 205.838527 
L 241.666969 218.308591 
L 241.976109 221.061853 
L 242.15276 221.40379 
L 242.285248 221.290225 
L 242.506063 220.724182 
L 242.771039 219.327307 
L 243.080179 216.329312 
L 246.39239 173.063228 
L 246.834018 161.168351 
L 247.673111 139.282252 
L 247.938088 136.723346 
L 248.026414 136.999453 
L 248.158902 138.770389 
L 248.379716 145.376869 
L 248.865507 169.683457 
L 249.395461 192.892118 
L 249.837089 203.550739 
L 250.146229 206.464795 
L 250.367043 206.855024 
L 250.587857 206.635347 
L 250.852834 205.922966 
L 251.073648 205.486522 
L 251.338624 205.222509 
L 251.647764 204.649565 
L 252.089392 204.283594 
L 252.354369 203.062393 
L 252.795997 200.403623 
L 253.635091 194.787579 
L 254.209207 188.12298 
L 254.341696 187.853924 
L 254.385858 187.887031 
L 254.474184 188.242817 
L 254.694998 190.566177 
L 255.0483 198.065362 
L 256.329022 230.206214 
L 257.035627 241.566385 
L 257.786395 254.038839 
L 257.830557 254.211733 
L 257.87472 254.149377 
L 258.051372 252.876512 
L 258.139697 252.917475 
L 258.228023 252.961606 
L 258.448837 253.329289 
L 258.537162 253.425648 
L 258.581325 253.385241 
L 258.757976 252.765341 
L 258.934628 251.355324 
L 259.508744 244.170303 
L 259.641233 243.991649 
L 259.729558 244.148015 
L 259.90621 245.212399 
L 260.392 248.252428 
L 260.480326 248.099821 
L 260.612815 247.171505 
L 261.098605 236.958115 
L 261.275257 232.198614 
L 262.070187 219.316914 
L 262.511815 216.619538 
L 262.732629 216.207432 
L 262.820955 216.368527 
L 262.997606 217.440254 
L 263.306746 221.324263 
L 263.8367 231.639038 
L 265.117421 256.960702 
L 265.382398 258.19254 
L 265.559049 258.256592 
L 265.779863 257.862119 
L 266.04484 257.465427 
L 266.177329 257.617098 
L 266.574794 258.331162 
L 266.839771 257.415671 
L 267.104748 256.679022 
L 267.281399 256.376668 
L 267.413887 255.749676 
L 267.590538 255.783013 
L 267.899678 256.238016 
L 267.988004 256.209848 
L 268.208818 255.606606 
L 268.606283 253.900602 
L 269.224562 251.091127 
L 269.312888 251.178087 
L 269.489539 251.98331 
L 269.842842 255.440145 
L 270.28447 261.576841 
L 270.681935 270.255592 
L 271.69768 295.291751 
L 272.006819 298.795305 
L 272.050982 298.874185 
L 272.095145 298.818335 
L 272.227633 297.785312 
L 272.448448 293.184278 
L 273.552518 263.561924 
L 273.596681 263.444681 
L 273.640843 263.49194 
L 273.817495 264.648794 
L 274.5241 271.481398 
L 274.612425 271.304389 
L 274.744914 270.491984 
L 275.00989 264.107973 
L 275.230705 260.41774 
L 275.62817 252.86105 
L 276.511426 234.59484 
L 276.908891 231.382613 
L 277.262194 229.978983 
L 277.350519 229.972486 
L 277.527171 230.397842 
L 277.968799 232.934188 
L 278.45459 235.600828 
L 278.587078 235.866214 
L 278.763729 235.692214 
L 278.896218 235.366018 
L 279.161195 233.601697 
L 279.514497 231.624803 
L 279.602823 231.583928 
L 279.646986 231.635934 
L 279.823637 232.290322 
L 280.221102 235.402208 
L 280.66273 240.663619 
L 281.060195 244.152618 
L 281.148521 244.290301 
L 281.281009 243.747689 
L 281.501824 241.440129 
L 281.987614 233.421048 
L 282.915033 214.327465 
L 283.79829 195.693857 
L 283.974941 194.937006 
L 284.063266 195.194354 
L 284.239918 196.814678 
L 284.549057 201.962705 
L 285.476476 218.806629 
L 286.713035 235.089527 
L 286.801361 235.141047 
L 286.845523 235.08744 
L 286.978012 234.57611 
L 287.242989 232.404419 
L 287.596291 226.749209 
L 288.391222 208.978481 
L 289.053664 196.412876 
L 289.318641 194.49655 
L 289.495292 194.274853 
L 289.627781 194.569259 
L 289.93692 196.197518 
L 290.290223 199.21611 
L 290.599362 203.523071 
L 291.305967 214.667682 
L 291.438456 215.156657 
L 291.482619 215.138729 
L 291.615107 214.503464 
L 291.835921 211.715253 
L 292.365875 200.935447 
L 292.76334 195.181333 
L 293.028317 194.084426 
L 293.204968 194.045306 
L 293.646596 194.18286 
L 293.823247 193.967192 
L 294.088224 193.132929 
L 294.309038 191.377419 
L 294.662341 186.292689 
L 295.192295 174.865724 
L 296.163876 152.770053 
L 296.561342 147.646149 
L 296.914644 145.564947 
L 297.091295 145.289471 
L 297.179621 145.454608 
L 297.400435 146.598531 
L 298.062877 150.581282 
L 298.151203 150.567643 
L 298.283691 150.018036 
L 298.504505 147.425563 
L 298.901971 139.042758 
L 299.917715 115.400166 
L 300.094366 114.542578 
L 300.182692 114.715023 
L 300.359343 116.095532 
L 300.712646 121.11879 
L 302.03753 141.242037 
L 302.699972 148.912135 
L 303.053275 146.23442 
L 303.362414 141.026618 
L 304.069019 127.6761 
L 304.510647 121.159877 
L 304.819787 119.304597 
L 305.040601 119.101562 
L 305.17309 119.008828 
L 305.349741 118.531136 
L 305.570555 117.551982 
L 305.96802 114.433185 
L 306.718788 107.856828 
L 306.807113 107.810108 
L 306.851276 107.856329 
L 307.027928 108.451442 
L 307.602044 110.712781 
L 307.778695 110.691164 
L 307.911184 110.557816 
L 308.176161 110.95488 
L 308.352812 111.877906 
L 308.617789 114.862488 
L 309.10358 124.377823 
L 309.633533 133.285901 
L 309.942673 135.694996 
L 310.20765 136.296359 
L 310.295975 136.334478 
L 310.914255 134.500204 
L 311.488371 132.019167 
L 311.665023 130.068467 
L 311.929999 122.393626 
L 313.078232 84.090039 
L 313.299047 83.085286 
L 313.431535 83.422662 
L 314.093977 85.660724 
L 314.270628 85.643333 
L 314.535605 85.358015 
L 314.844745 84.660922 
L 315.065559 84.451198 
L 315.330536 85.017507 
L 315.683838 87.453401 
L 315.948815 91.864113 
L 317.229537 118.797883 
L 317.671165 124.189187 
L 317.847816 124.684498 
L 317.936142 124.462072 
L 318.112793 123.148851 
L 318.554421 117.086509 
L 319.879305 97.603537 
L 319.923468 97.606573 
L 320.055956 98.281238 
L 320.27677 101.098271 
L 321.071701 112.828248 
L 321.425004 115.073837 
L 321.734143 116.881973 
L 322.219934 121.491212 
L 323.10319 130.506582 
L 323.147353 130.489812 
L 323.41233 130.001329 
L 323.853958 127.534328 
L 323.942284 127.464065 
L 323.986446 127.504363 
L 324.118935 128.028012 
L 324.339749 131.271168 
L 324.693051 140.773153 
L 325.62047 168.250214 
L 326.547889 184.861024 
L 326.768703 184.508496 
L 326.857029 184.203486 
L 327.254494 182.192936 
L 327.386983 180.389731 
L 327.872774 168.177694 
L 328.270239 152.913971 
L 328.667704 137.276963 
L 329.462635 118.780536 
L 330.036751 114.622821 
L 330.434217 111.633036 
L 331.27331 103.903792 
L 331.361636 103.946207 
L 331.494124 104.485484 
L 331.714938 106.657672 
L 332.156566 114.114385 
L 332.730683 122.83801 
L 333.039822 124.843685 
L 333.216474 125.128367 
L 333.348962 124.903208 
L 333.569776 123.780851 
L 333.923079 120.720893 
L 334.453032 114.101415 
L 334.982986 104.781201 
L 335.645428 88.031408 
L 336.440359 69.472343 
L 336.92615 62.985436 
L 337.279452 60.633802 
L 337.411941 60.360469 
L 337.456103 60.378744 
L 337.544429 60.531586 
L 337.72108 61.527523 
L 337.986057 64.87231 
L 338.383522 73.637527 
L 339.045965 88.323547 
L 339.355104 91.284243 
L 339.531756 91.636723 
L 339.664244 91.505528 
L 339.840895 90.85142 
L 340.503337 87.675141 
L 340.679989 87.705571 
L 341.165779 88.531257 
L 341.209942 88.46669 
L 341.342431 87.932492 
L 341.563245 85.683138 
L 341.739896 82.162553 
L 342.446501 61.03898 
L 342.976455 50.39713 
L 343.37392 46.502264 
L 343.638897 45.572657 
L 343.68306 45.517463 
L 343.727222 45.598125 
L 344.036362 46.74177 
L 344.698804 50.824883 
L 345.228758 55.071182 
L 345.802874 60.032424 
L 346.951108 71.356221 
L 347.569387 73.985311 
L 347.701875 74.099163 
L 347.790201 73.890608 
L 348.055178 72.262364 
L 348.982597 64.697833 
L 349.247574 64.236393 
L 349.512551 64.17065 
L 349.689202 64.125908 
L 349.910016 63.921108 
L 350.042504 64.006031 
L 350.263318 64.57029 
L 350.616621 66.499595 
L 350.969923 69.297376 
L 351.058249 68.924221 
L 351.897342 65.503066 
L 351.941505 65.414545 
L 351.985668 65.4389 
L 352.206482 68.45729 
L 352.427296 70.536494 
L 352.736436 74.323402 
L 353.222227 83.298874 
L 353.531366 86.552206 
L 353.708017 87.155396 
L 353.840506 87.055779 
L 354.149646 86.226201 
L 354.37046 85.783645 
L 354.458785 85.901529 
L 354.679599 86.9037 
L 354.900413 89.332002 
L 355.562855 96.985768 
L 355.783669 97.487645 
L 356.26946 97.75282 
L 356.5786 99.94574 
L 356.931903 105.058205 
L 357.373531 111.407749 
L 357.550182 111.803701 
L 357.638508 111.723827 
L 357.770996 111.233859 
L 357.99181 109.627504 
L 358.30095 107.611954 
L 358.830903 104.064235 
L 359.228369 103.539693 
L 359.625834 103.142381 
L 359.890811 102.764065 
L 360.19995 102.286291 
L 360.420765 102.395895 
L 360.50909 102.20432 
L 360.774067 104.000658 
L 361.083207 108.664726 
L 362.363928 130.643372 
L 362.673068 131.665964 
L 363.379673 132.720917 
L 363.688812 131.384632 
L 364.307092 122.79633 
L 364.792883 111.411913 
L 365.190348 103.942375 
L 365.631976 98.38287 
L 365.941116 97.655899 
L 366.073604 97.623811 
L 366.206093 97.814579 
L 366.426907 98.681787 
L 366.736046 101.105683 
L 367.221837 106.607995 
L 368.149256 117.812306 
L 368.414233 119.127854 
L 368.590884 119.337876 
L 368.723373 119.179763 
L 368.900024 118.595758 
L 369.165001 116.7846 
L 369.871606 111.34935 
L 370.224908 110.254601 
L 370.666536 109.015606 
L 370.975676 107.444403 
L 371.328979 104.265777 
L 372.212235 95.153858 
L 372.344723 94.954249 
L 372.388886 94.982467 
L 372.565537 95.470354 
L 373.71377 100.638056 
L 374.552864 106.435651 
L 374.641189 106.347135 
L 374.773678 105.85329 
L 375.082817 103.574031 
L 375.524445 100.726518 
L 375.656934 100.549108 
L 375.701097 100.587062 
L 375.833585 100.996321 
L 376.098562 102.964509 
L 376.672679 107.742528 
L 376.805167 107.894623 
L 376.937655 107.600488 
L 377.158469 106.115906 
L 377.997563 98.806517 
L 378.218377 98.150763 
L 378.350865 98.125678 
L 378.571679 98.453945 
L 379.013307 99.115284 
L 379.322447 99.253224 
L 379.499098 99.017102 
L 379.67575 98.539608 
L 380.647331 94.917799 
L 380.77982 95.3167 
L 381.000634 97.071083 
L 381.398099 102.816906 
L 382.148867 114.139931 
L 382.458007 115.999775 
L 382.678821 116.256297 
L 383.252937 116.170478 
L 383.429588 116.735438 
L 383.738728 118.618202 
L 384.136193 120.786191 
L 384.489496 121.873373 
L 384.666147 121.981198 
L 385.196101 121.627527 
L 385.416915 121.819312 
L 385.637729 122.316595 
L 385.946869 123.729673 
L 386.609311 127.048247 
L 386.785962 127.379067 
L 386.830125 127.339231 
L 387.006776 126.838596 
L 387.22759 125.408546 
L 387.448404 122.050232 
L 387.757544 118.982906 
L 387.845869 118.835673 
L 387.890032 118.88414 
L 388.022521 119.296712 
L 388.110846 119.806553 
L 388.199172 119.681814 
L 388.33166 119.434123 
L 388.684963 120.974532 
L 388.817451 121.226335 
L 389.214916 120.016786 
L 389.347405 120.102733 
L 389.524056 120.727846 
L 389.789033 122.74619 
L 390.098173 126.938451 
L 390.583964 133.167045 
L 390.804778 133.966197 
L 390.893103 133.830532 
L 391.069754 132.948576 
L 391.378894 129.857279 
L 391.908848 124.712328 
L 392.041336 124.484135 
L 392.173825 124.873153 
L 392.438802 126.809227 
L 392.88043 131.01381 
L 392.924592 130.561898 
L 393.277895 125.643394 
L 393.542872 122.93193 
L 393.940337 121.631174 
L 394.337802 120.655708 
L 394.646942 119.873189 
L 395.000245 119.534211 
L 395.265221 119.703148 
L 395.839338 120.582775 
L 396.457617 123.19338 
L 396.987571 125.70889 
L 397.296711 126.447699 
L 397.561688 126.558945 
L 397.782502 126.429475 
L 397.91499 126.48646 
L 398.135804 127.050739 
L 398.400781 128.285493 
L 399.063223 131.518616 
L 399.239874 131.896887 
L 399.284037 131.866043 
L 399.504851 131.521654 
L 399.813991 131.149425 
L 399.990642 131.133068 
L 400.167293 131.345859 
L 400.43227 132.203948 
L 400.74141 134.084555 
L 401.315526 137.206987 
L 401.889643 139.102275 
L 402.684573 140.61153 
L 403.037876 140.527088 
L 403.302853 140.751428 
L 403.656155 141.728044 
L 404.318597 144.801879 
L 404.495249 145.079982 
L 404.539411 145.051184 
L 404.892714 145.326773 
L 405.201854 146.068704 
L 405.643482 147.911471 
L 406.394249 151.270165 
L 406.570901 151.268216 
L 406.835878 150.914934 
L 407.454157 149.990076 
L 407.674971 150.05104 
L 407.984111 150.439637 
L 408.160762 150.810718 
L 408.204925 150.725355 
L 408.779041 152.493943 
L 408.955692 152.545149 
L 409.264832 152.061474 
L 409.70646 150.648341 
L 410.103925 149.466684 
L 410.236414 149.468789 
L 410.280577 149.506721 
L 410.32474 149.425046 
L 410.545554 149.550696 
L 411.11967 150.571779 
L 411.163833 150.538643 
L 411.870438 149.918705 
L 412.091252 150.332052 
L 412.400392 151.534543 
L 413.195322 154.873981 
L 413.416136 155.126688 
L 413.681113 154.76278 
L 413.990253 154.40536 
L 414.166904 154.575303 
L 414.387718 155.366361 
L 415.226811 159.056932 
L 415.800928 154.685342 
L 415.933416 154.89601 
L 416.198393 155.772729 
L 416.993324 159.262944 
L 417.214138 159.496486 
L 417.390789 159.408272 
L 417.655766 159.125286 
L 418.583185 157.732532 
L 418.892325 157.730409 
L 419.245627 158.006666 
L 419.643092 157.585841 
L 419.775581 157.268739 
L 420.173046 155.449224 
L 420.747163 154.441251 
L 420.923814 154.329527 
L 421.144628 154.201704 
L 421.321279 153.940711 
L 421.365442 153.802957 
L 421.453768 153.851914 
L 421.762907 153.939416 
L 422.160373 153.825578 
L 422.381187 153.506655 
L 423.22028 151.926519 
L 423.264443 151.961192 
L 424.059373 152.599262 
L 424.280187 152.298458 
L 424.810141 150.554347 
L 425.207606 149.518668 
L 426.444165 147.341822 
L 427.106607 144.818746 
L 427.592398 143.058849 
L 427.901538 142.669856 
L 428.166515 142.571091 
L 428.56398 142.486407 
L 428.784794 142.362025 
L 429.226422 141.627286 
L 429.712213 140.949371 
L 429.933027 140.998506 
L 430.860446 141.840657 
L 431.567051 139.121267 
L 431.787865 138.666163 
L 431.964516 138.697481 
L 432.229493 139.047861 
L 432.80361 139.821942 
L 432.936098 139.894096 
L 433.156912 139.203614 
L 433.289401 138.812705 
L 433.333563 138.832155 
L 434.172657 139.342707 
L 434.437634 139.463747 
L 435.188401 139.529662 
L 435.585867 139.002286 
L 435.806681 138.801632 
L 436.292472 138.452255 
L 436.645774 138.532243 
L 437.087402 138.727988 
L 437.264053 138.738229 
L 437.52903 138.777639 
L 438.058984 139.271195 
L 438.986403 139.939883 
L 439.604682 140.988581 
L 439.604682 140.988581 
" clip-path="url(#pe844f798e9)" style="fill: none; stroke: #1f77b4; stroke-width: 1.5; stroke-linecap: square"/>
   </g>
   <g id="patch_3">
    <path d="M 57.508052 312.24351 
L 57.508052 18.118365 
" style="fill: none; stroke: #000000; stroke-width: 0.8; stroke-linejoin: miter; stroke-linecap: square"/>
   </g>
   <g id="patch_4">
    <path d="M 57.508052 312.24351 
L 457.79976 312.24351 
" style="fill: none; stroke: #000000; stroke-width: 0.8; stroke-linejoin: miter; stroke-linecap: square"/>
   </g>
   <g id="text_12">
    <text style="font: 12px 'Roboto', sans-serif; text-anchor: middle" x="257.653906" y="12.118365" transform="rotate(-0 257.653906 12.118365)">Cross-correlation between Fisher information and velocity at lap 2</text>
   </g>
  </g>
 </g>
 <defs>
  <clipPath id="pe844f798e9">
   <rect x="57.508052" y="18.118365" width="400.291707" height="294.125145"/>
  </clipPath>
 </defs>
</svg>
