<?xml version="1.0" encoding="utf-8" standalone="no"?>
<!DOCTYPE svg PUBLIC "-//W3C//DTD SVG 1.1//EN"
  "http://www.w3.org/Graphics/SVG/1.1/DTD/svg11.dtd">
<svg xmlns:xlink="http://www.w3.org/1999/xlink" width="460.8pt" height="345.6pt" viewBox="0 0 460.8 345.6" xmlns="http://www.w3.org/2000/svg" version="1.1">
 <metadata>
  <rdf:RDF xmlns:dc="http://purl.org/dc/elements/1.1/" xmlns:cc="http://creativecommons.org/ns#" xmlns:rdf="http://www.w3.org/1999/02/22-rdf-syntax-ns#">
   <cc:Work>
    <dc:type rdf:resource="http://purl.org/dc/dcmitype/StillImage"/>
    <dc:date>2024-06-11T12:49:33.837459</dc:date>
    <dc:format>image/svg+xml</dc:format>
    <dc:creator>
     <cc:Agent>
      <dc:title>Matplotlib v3.8.2, https://matplotlib.org/</dc:title>
     </cc:Agent>
    </dc:creator>
   </cc:Work>
  </rdf:RDF>
 </metadata>
 <defs>
  <style type="text/css">*{stroke-linejoin: round; stroke-linecap: butt}</style>
 </defs>
 <g id="figure_1">
  <g id="patch_1">
   <path d="M 0 345.6 
L 460.8 345.6 
L 460.8 0 
L 0 0 
z
" style="fill: #ffffff"/>
  </g>
  <g id="axes_1">
   <g id="patch_2">
    <path d="M 24.742428 223.335697 
L 457.79976 223.335697 
L 457.79976 18.118365 
L 24.742428 18.118365 
z
" style="fill: #ffffff"/>
   </g>
   <g id="PathCollection_1">
    <defs>
     <path id="m3042f0d826" d="M 0 3 
C 0.795609 3 1.55874 2.683901 2.12132 2.12132 
C 2.683901 1.55874 3 0.795609 3 0 
C 3 -0.795609 2.683901 -1.55874 2.12132 -2.12132 
C 1.55874 -2.683901 0.795609 -3 0 -3 
C -0.795609 -3 -1.55874 -2.683901 -2.12132 -2.12132 
C -2.683901 -1.55874 -3 -0.795609 -3 0 
C -3 0.795609 -2.683901 1.55874 -2.12132 2.12132 
C -1.55874 2.683901 -0.795609 3 0 3 
z
" style="stroke: #0000ff"/>
    </defs>
    <g clip-path="url(#pe1be48ae56)">
     <use xlink:href="#m3042f0d826" x="44.426852" y="138.065674" style="fill: #0000ff; stroke: #0000ff"/>
     <use xlink:href="#m3042f0d826" x="70.672751" y="122.753383" style="fill: #0000ff; stroke: #0000ff"/>
     <use xlink:href="#m3042f0d826" x="96.91865" y="180.402643" style="fill: #0000ff; stroke: #0000ff"/>
     <use xlink:href="#m3042f0d826" x="123.164549" y="195.792904" style="fill: #0000ff; stroke: #0000ff"/>
     <use xlink:href="#m3042f0d826" x="149.410447" y="179.20381" style="fill: #0000ff; stroke: #0000ff"/>
     <use xlink:href="#m3042f0d826" x="175.656346" y="200.779986" style="fill: #0000ff; stroke: #0000ff"/>
     <use xlink:href="#m3042f0d826" x="201.902245" y="143.138374" style="fill: #0000ff; stroke: #0000ff"/>
     <use xlink:href="#m3042f0d826" x="228.148144" y="135.822911" style="fill: #0000ff; stroke: #0000ff"/>
     <use xlink:href="#m3042f0d826" x="254.394043" y="183.014858" style="fill: #0000ff; stroke: #0000ff"/>
     <use xlink:href="#m3042f0d826" x="280.639942" y="164.915766" style="fill: #0000ff; stroke: #0000ff"/>
     <use xlink:href="#m3042f0d826" x="306.885841" y="147.25971" style="fill: #0000ff; stroke: #0000ff"/>
     <use xlink:href="#m3042f0d826" x="333.13174" y="170.954016" style="fill: #0000ff; stroke: #0000ff"/>
     <use xlink:href="#m3042f0d826" x="359.377639" y="171.841418" style="fill: #0000ff; stroke: #0000ff"/>
     <use xlink:href="#m3042f0d826" x="385.623538" y="141.302856" style="fill: #0000ff; stroke: #0000ff"/>
     <use xlink:href="#m3042f0d826" x="411.869437" y="120.582424" style="fill: #0000ff; stroke: #0000ff"/>
     <use xlink:href="#m3042f0d826" x="438.115336" y="168.720276" style="fill: #0000ff; stroke: #0000ff"/>
    </g>
   </g>
   <g id="PathCollection_2">
    <defs>
     <path id="m306bd0cae5" d="M 0 3 
C 0.795609 3 1.55874 2.683901 2.12132 2.12132 
C 2.683901 1.55874 3 0.795609 3 0 
C 3 -0.795609 2.683901 -1.55874 2.12132 -2.12132 
C 1.55874 -2.683901 0.795609 -3 0 -3 
C -0.795609 -3 -1.55874 -2.683901 -2.12132 -2.12132 
C -2.683901 -1.55874 -3 -0.795609 -3 0 
C -3 0.795609 -2.683901 1.55874 -2.12132 2.12132 
C -1.55874 2.683901 -0.795609 3 0 3 
z
" style="stroke: #ffa500"/>
    </defs>
    <g clip-path="url(#pe1be48ae56)">
     <use xlink:href="#m306bd0cae5" x="44.426852" y="109.178148" style="fill: #ffa500; stroke: #ffa500"/>
     <use xlink:href="#m306bd0cae5" x="70.672751" y="179.409069" style="fill: #ffa500; stroke: #ffa500"/>
     <use xlink:href="#m306bd0cae5" x="96.91865" y="196.933178" style="fill: #ffa500; stroke: #ffa500"/>
     <use xlink:href="#m306bd0cae5" x="123.164549" y="43.015689" style="fill: #ffa500; stroke: #ffa500"/>
     <use xlink:href="#m306bd0cae5" x="149.410447" y="171.2766" style="fill: #ffa500; stroke: #ffa500"/>
     <use xlink:href="#m306bd0cae5" x="175.656346" y="27.446426" style="fill: #ffa500; stroke: #ffa500"/>
     <use xlink:href="#m306bd0cae5" x="201.902245" y="123.418474" style="fill: #ffa500; stroke: #ffa500"/>
     <use xlink:href="#m306bd0cae5" x="228.148144" y="163.907" style="fill: #ffa500; stroke: #ffa500"/>
     <use xlink:href="#m306bd0cae5" x="254.394043" y="179.01425" style="fill: #ffa500; stroke: #ffa500"/>
     <use xlink:href="#m306bd0cae5" x="280.639942" y="118.558727" style="fill: #ffa500; stroke: #ffa500"/>
     <use xlink:href="#m306bd0cae5" x="306.885841" y="159.929077" style="fill: #ffa500; stroke: #ffa500"/>
     <use xlink:href="#m306bd0cae5" x="333.13174" y="157.823492" style="fill: #ffa500; stroke: #ffa500"/>
     <use xlink:href="#m306bd0cae5" x="359.377639" y="183.191275" style="fill: #ffa500; stroke: #ffa500"/>
     <use xlink:href="#m306bd0cae5" x="385.623538" y="164.363544" style="fill: #ffa500; stroke: #ffa500"/>
     <use xlink:href="#m306bd0cae5" x="411.869437" y="214.007637" style="fill: #ffa500; stroke: #ffa500"/>
     <use xlink:href="#m306bd0cae5" x="438.115336" y="214.000612" style="fill: #ffa500; stroke: #ffa500"/>
    </g>
   </g>
   <g id="matplotlib.axis_1">
    <g id="xtick_1">
     <g id="line2d_1">
      <defs>
       <path id="m3562a39c00" d="M 0 0 
L 0 3.5 
" style="stroke: #000000; stroke-width: 0.8"/>
      </defs>
      <g>
       <use xlink:href="#m3562a39c00" x="44.426852" y="223.335697" style="stroke: #000000; stroke-width: 0.8"/>
      </g>
     </g>
     <g id="text_1">
      <text style="font: 10px 'Roboto', sans-serif" transform="translate(46.958883 342.59976) rotate(-90)">20230426_1728_AS97</text>
     </g>
    </g>
    <g id="xtick_2">
     <g id="line2d_2">
      <g>
       <use xlink:href="#m3562a39c00" x="70.672751" y="223.335697" style="stroke: #000000; stroke-width: 0.8"/>
      </g>
     </g>
     <g id="text_2">
      <text style="font: 10px 'Roboto', sans-serif" transform="translate(73.204782 342.59976) rotate(-90)">20230425_1424_AS96</text>
     </g>
    </g>
    <g id="xtick_3">
     <g id="line2d_3">
      <g>
       <use xlink:href="#m3562a39c00" x="96.91865" y="223.335697" style="stroke: #000000; stroke-width: 0.8"/>
      </g>
     </g>
     <g id="text_3">
      <text style="font: 10px 'Roboto', sans-serif" transform="translate(99.450681 342.59976) rotate(-90)">20230425_1529_AS96</text>
     </g>
    </g>
    <g id="xtick_4">
     <g id="line2d_4">
      <g>
       <use xlink:href="#m3562a39c00" x="123.164549" y="223.335697" style="stroke: #000000; stroke-width: 0.8"/>
      </g>
     </g>
     <g id="text_4">
      <text style="font: 10px 'Roboto', sans-serif" transform="translate(125.69658 342.59976) rotate(-90)">20230426_1438_AS96</text>
     </g>
    </g>
    <g id="xtick_5">
     <g id="line2d_5">
      <g>
       <use xlink:href="#m3562a39c00" x="149.410447" y="223.335697" style="stroke: #000000; stroke-width: 0.8"/>
      </g>
     </g>
     <g id="text_5">
      <text style="font: 10px 'Roboto', sans-serif" transform="translate(151.942479 342.59976) rotate(-90)">20230421_1408_AS96</text>
     </g>
    </g>
    <g id="xtick_6">
     <g id="line2d_6">
      <g>
       <use xlink:href="#m3562a39c00" x="175.656346" y="223.335697" style="stroke: #000000; stroke-width: 0.8"/>
      </g>
     </g>
     <g id="text_6">
      <text style="font: 10px 'Roboto', sans-serif" transform="translate(178.188378 342.59976) rotate(-90)">20230422_1506_AS95</text>
     </g>
    </g>
    <g id="xtick_7">
     <g id="line2d_7">
      <g>
       <use xlink:href="#m3562a39c00" x="201.902245" y="223.335697" style="stroke: #000000; stroke-width: 0.8"/>
      </g>
     </g>
     <g id="text_7">
      <text style="font: 10px 'Roboto', sans-serif" transform="translate(204.434277 342.59976) rotate(-90)">20230424_1543_AS95</text>
     </g>
    </g>
    <g id="xtick_8">
     <g id="line2d_8">
      <g>
       <use xlink:href="#m3562a39c00" x="228.148144" y="223.335697" style="stroke: #000000; stroke-width: 0.8"/>
      </g>
     </g>
     <g id="text_8">
      <text style="font: 10px 'Roboto', sans-serif" transform="translate(230.680176 342.59976) rotate(-90)">20230423_1623_AS95</text>
     </g>
    </g>
    <g id="xtick_9">
     <g id="line2d_9">
      <g>
       <use xlink:href="#m3562a39c00" x="254.394043" y="223.335697" style="stroke: #000000; stroke-width: 0.8"/>
      </g>
     </g>
     <g id="text_9">
      <text style="font: 10px 'Roboto', sans-serif" transform="translate(256.926074 312.14976) rotate(-90)">20230316_AS91</text>
     </g>
    </g>
    <g id="xtick_10">
     <g id="line2d_10">
      <g>
       <use xlink:href="#m3562a39c00" x="280.639942" y="223.335697" style="stroke: #000000; stroke-width: 0.8"/>
      </g>
     </g>
     <g id="text_10">
      <text style="font: 10px 'Roboto', sans-serif" transform="translate(283.171973 312.14976) rotate(-90)">20230314_AS91</text>
     </g>
    </g>
    <g id="xtick_11">
     <g id="line2d_11">
      <g>
       <use xlink:href="#m3562a39c00" x="306.885841" y="223.335697" style="stroke: #000000; stroke-width: 0.8"/>
      </g>
     </g>
     <g id="text_11">
      <text style="font: 10px 'Roboto', sans-serif" transform="translate(309.417872 312.14976) rotate(-90)">20230315_AS91</text>
     </g>
    </g>
    <g id="xtick_12">
     <g id="line2d_12">
      <g>
       <use xlink:href="#m3562a39c00" x="333.13174" y="223.335697" style="stroke: #000000; stroke-width: 0.8"/>
      </g>
     </g>
     <g id="text_12">
      <text style="font: 10px 'Roboto', sans-serif" transform="translate(335.663771 312.14976) rotate(-90)">20230223_AS87</text>
     </g>
    </g>
    <g id="xtick_13">
     <g id="line2d_13">
      <g>
       <use xlink:href="#m3562a39c00" x="359.377639" y="223.335697" style="stroke: #000000; stroke-width: 0.8"/>
      </g>
     </g>
     <g id="text_13">
      <text style="font: 10px 'Roboto', sans-serif" transform="translate(361.90967 312.14976) rotate(-90)">20230227_AS87</text>
     </g>
    </g>
    <g id="xtick_14">
     <g id="line2d_14">
      <g>
       <use xlink:href="#m3562a39c00" x="385.623538" y="223.335697" style="stroke: #000000; stroke-width: 0.8"/>
      </g>
     </g>
     <g id="text_14">
      <text style="font: 10px 'Roboto', sans-serif" transform="translate(388.155569 312.14976) rotate(-90)">20230228_AS87</text>
     </g>
    </g>
    <g id="xtick_15">
     <g id="line2d_15">
      <g>
       <use xlink:href="#m3562a39c00" x="411.869437" y="223.335697" style="stroke: #000000; stroke-width: 0.8"/>
      </g>
     </g>
     <g id="text_15">
      <text style="font: 10px 'Roboto', sans-serif" transform="translate(414.401468 312.14976) rotate(-90)">20230224_AS89</text>
     </g>
    </g>
    <g id="xtick_16">
     <g id="line2d_16">
      <g>
       <use xlink:href="#m3562a39c00" x="438.115336" y="223.335697" style="stroke: #000000; stroke-width: 0.8"/>
      </g>
     </g>
     <g id="text_16">
      <text style="font: 10px 'Roboto', sans-serif" transform="translate(440.647367 312.14976) rotate(-90)">20230223_AS89</text>
     </g>
    </g>
   </g>
   <g id="matplotlib.axis_2">
    <g id="ytick_1">
     <g id="line2d_17">
      <defs>
       <path id="m6241fb8998" d="M 0 0 
L -3.5 0 
" style="stroke: #000000; stroke-width: 0.8"/>
      </defs>
      <g>
       <use xlink:href="#m6241fb8998" x="24.742428" y="206.347734" style="stroke: #000000; stroke-width: 0.8"/>
      </g>
     </g>
     <g id="text_17">
      <text style="font: 10px 'Roboto', sans-serif; text-anchor: end" x="17.742428" y="210.146953" transform="rotate(-0 17.742428 210.146953)">−1</text>
     </g>
    </g>
    <g id="ytick_2">
     <g id="line2d_18">
      <g>
       <use xlink:href="#m6241fb8998" x="24.742428" y="170.262199" style="stroke: #000000; stroke-width: 0.8"/>
      </g>
     </g>
     <g id="text_18">
      <text style="font: 10px 'Roboto', sans-serif; text-anchor: end" x="17.742428" y="174.061418" transform="rotate(-0 17.742428 174.061418)">0</text>
     </g>
    </g>
    <g id="ytick_3">
     <g id="line2d_19">
      <g>
       <use xlink:href="#m6241fb8998" x="24.742428" y="134.176664" style="stroke: #000000; stroke-width: 0.8"/>
      </g>
     </g>
     <g id="text_19">
      <text style="font: 10px 'Roboto', sans-serif; text-anchor: end" x="17.742428" y="137.975883" transform="rotate(-0 17.742428 137.975883)">1</text>
     </g>
    </g>
    <g id="ytick_4">
     <g id="line2d_20">
      <g>
       <use xlink:href="#m6241fb8998" x="24.742428" y="98.091129" style="stroke: #000000; stroke-width: 0.8"/>
      </g>
     </g>
     <g id="text_20">
      <text style="font: 10px 'Roboto', sans-serif; text-anchor: end" x="17.742428" y="101.890348" transform="rotate(-0 17.742428 101.890348)">2</text>
     </g>
    </g>
    <g id="ytick_5">
     <g id="line2d_21">
      <g>
       <use xlink:href="#m6241fb8998" x="24.742428" y="62.005594" style="stroke: #000000; stroke-width: 0.8"/>
      </g>
     </g>
     <g id="text_21">
      <text style="font: 10px 'Roboto', sans-serif; text-anchor: end" x="17.742428" y="65.804813" transform="rotate(-0 17.742428 65.804813)">3</text>
     </g>
    </g>
    <g id="ytick_6">
     <g id="line2d_22">
      <g>
       <use xlink:href="#m6241fb8998" x="24.742428" y="25.92006" style="stroke: #000000; stroke-width: 0.8"/>
      </g>
     </g>
     <g id="text_22">
      <text style="font: 10px 'Roboto', sans-serif; text-anchor: end" x="17.742428" y="29.719278" transform="rotate(-0 17.742428 29.719278)">4</text>
     </g>
    </g>
   </g>
   <g id="line2d_23">
    <path d="M 24.742428 170.262199 
L 457.79976 170.262199 
" clip-path="url(#pe1be48ae56)" style="fill: none; stroke: #000000; stroke-width: 0.5; stroke-linecap: square"/>
   </g>
   <g id="patch_3">
    <path d="M 24.742428 223.335697 
L 24.742428 18.118365 
" style="fill: none; stroke: #000000; stroke-width: 0.8; stroke-linejoin: miter; stroke-linecap: square"/>
   </g>
   <g id="patch_4">
    <path d="M 24.742428 223.335697 
L 457.79976 223.335697 
" style="fill: none; stroke: #000000; stroke-width: 0.8; stroke-linejoin: miter; stroke-linecap: square"/>
   </g>
   <g id="text_23">
    <text style="font: 12px 'Roboto', sans-serif; text-anchor: middle" x="241.271094" y="12.118365" transform="rotate(-0 241.271094 12.118365)">Slope coefficients</text>
   </g>
   <g id="legend_1">
    <g id="patch_5">
     <path d="M 371.063822 55.474615 
L 450.79976 55.474615 
Q 452.79976 55.474615 452.79976 53.474615 
L 452.79976 25.118365 
Q 452.79976 23.118365 450.79976 23.118365 
L 371.063822 23.118365 
Q 369.063822 23.118365 369.063822 25.118365 
L 369.063822 53.474615 
Q 369.063822 55.474615 371.063822 55.474615 
z
" style="fill: #ffffff; opacity: 0.8; stroke: #cccccc; stroke-linejoin: miter"/>
    </g>
    <g id="PathCollection_3">
     <g>
      <use xlink:href="#m3042f0d826" x="383.063822" y="32.091802" style="fill: #0000ff; stroke: #0000ff"/>
     </g>
    </g>
    <g id="text_24">
     <text style="font: 10px 'Roboto', sans-serif; text-anchor: start" x="401.063822" y="34.716802" transform="rotate(-0 401.063822 34.716802)">Right eye</text>
    </g>
    <g id="PathCollection_4">
     <g>
      <use xlink:href="#m306bd0cae5" x="383.063822" y="46.769927" style="fill: #ffa500; stroke: #ffa500"/>
     </g>
    </g>
    <g id="text_25">
     <text style="font: 10px 'Roboto', sans-serif; text-anchor: start" x="401.063822" y="49.394927" transform="rotate(-0 401.063822 49.394927)">Left eye</text>
    </g>
   </g>
  </g>
 </g>
 <defs>
  <clipPath id="pe1be48ae56">
   <rect x="24.742428" y="18.118365" width="433.057332" height="205.217332"/>
  </clipPath>
 </defs>
</svg>
