<?xml version="1.0" encoding="utf-8" standalone="no"?>
<!DOCTYPE svg PUBLIC "-//W3C//DTD SVG 1.1//EN"
  "http://www.w3.org/Graphics/SVG/1.1/DTD/svg11.dtd">
<svg xmlns:xlink="http://www.w3.org/1999/xlink" width="460.8pt" height="345.6pt" viewBox="0 0 460.8 345.6" xmlns="http://www.w3.org/2000/svg" version="1.1">
 <metadata>
  <rdf:RDF xmlns:dc="http://purl.org/dc/elements/1.1/" xmlns:cc="http://creativecommons.org/ns#" xmlns:rdf="http://www.w3.org/1999/02/22-rdf-syntax-ns#">
   <cc:Work>
    <dc:type rdf:resource="http://purl.org/dc/dcmitype/StillImage"/>
    <dc:date>2024-06-11T12:27:05.151048</dc:date>
    <dc:format>image/svg+xml</dc:format>
    <dc:creator>
     <cc:Agent>
      <dc:title>Matplotlib v3.8.2, https://matplotlib.org/</dc:title>
     </cc:Agent>
    </dc:creator>
   </cc:Work>
  </rdf:RDF>
 </metadata>
 <defs>
  <style type="text/css">*{stroke-linejoin: round; stroke-linecap: butt}</style>
 </defs>
 <g id="figure_1">
  <g id="patch_1">
   <path d="M 0 345.6 
L 460.8 345.6 
L 460.8 0 
L 0 0 
z
" style="fill: #ffffff"/>
  </g>
  <g id="axes_1">
   <g id="patch_2">
    <path d="M 42.765865 312.24351 
L 373.140994 312.24351 
L 373.140994 18.118365 
L 42.765865 18.118365 
z
" style="fill: #ffffff"/>
   </g>
   <g id="PathCollection_1">
    <defs>
     <path id="C0_0_3f3946fc83" d="M 0 3 
C 0.795609 3 1.55874 2.683901 2.12132 2.12132 
C 2.683901 1.55874 3 0.795609 3 -0 
C 3 -0.795609 2.683901 -1.55874 2.12132 -2.12132 
C 1.55874 -2.683901 0.795609 -3 0 -3 
C -0.795609 -3 -1.55874 -2.683901 -2.12132 -2.12132 
C -2.683901 -1.55874 -3 -0.795609 -3 0 
C -3 0.795609 -2.683901 1.55874 -2.12132 2.12132 
C -1.55874 2.683901 -0.795609 3 0 3 
z
"/>
    </defs>
    <g clip-path="url(#p466d84333d)">
     <use xlink:href="#C0_0_3f3946fc83" x="152.571426" y="190.646318" style="fill: #355f8d; stroke: #355f8d"/>
    </g>
    <g clip-path="url(#p466d84333d)">
     <use xlink:href="#C0_0_3f3946fc83" x="145.194382" y="190.646318" style="fill: #355f8d; stroke: #355f8d"/>
    </g>
    <g clip-path="url(#p466d84333d)">
     <use xlink:href="#C0_0_3f3946fc83" x="237.02961" y="190.646318" style="fill: #32648e; stroke: #32648e"/>
    </g>
    <g clip-path="url(#p466d84333d)">
     <use xlink:href="#C0_0_3f3946fc83" x="144.61785" y="190.646318" style="fill: #31678e; stroke: #31678e"/>
    </g>
    <g clip-path="url(#p466d84333d)">
     <use xlink:href="#C0_0_3f3946fc83" x="142.029067" y="190.646318" style="fill: #31678e; stroke: #31678e"/>
    </g>
    <g clip-path="url(#p466d84333d)">
     <use xlink:href="#C0_0_3f3946fc83" x="220.371522" y="188.524203" style="fill: #2c728e; stroke: #2c728e"/>
    </g>
    <g clip-path="url(#p466d84333d)">
     <use xlink:href="#C0_0_3f3946fc83" x="219.240733" y="188.524203" style="fill: #2c728e; stroke: #2c728e"/>
    </g>
    <g clip-path="url(#p466d84333d)">
     <use xlink:href="#C0_0_3f3946fc83" x="103.585275" y="186.402088" style="fill: #20928c; stroke: #20928c"/>
    </g>
    <g clip-path="url(#p466d84333d)">
     <use xlink:href="#C0_0_3f3946fc83" x="96.683934" y="186.402088" style="fill: #20928c; stroke: #20928c"/>
    </g>
    <g clip-path="url(#p466d84333d)">
     <use xlink:href="#C0_0_3f3946fc83" x="107.634246" y="184.279973" style="fill: #31b57b; stroke: #31b57b"/>
    </g>
    <g clip-path="url(#p466d84333d)">
     <use xlink:href="#C0_0_3f3946fc83" x="102.220346" y="182.157858" style="fill: #31b57b; stroke: #31b57b"/>
    </g>
    <g clip-path="url(#p466d84333d)">
     <use xlink:href="#C0_0_3f3946fc83" x="286.12857" y="180.035743" style="fill: #3dbc74; stroke: #3dbc74"/>
    </g>
    <g clip-path="url(#p466d84333d)">
     <use xlink:href="#C0_0_3f3946fc83" x="276.211342" y="177.913628" style="fill: #3dbc74; stroke: #3dbc74"/>
    </g>
    <g clip-path="url(#p466d84333d)">
     <use xlink:href="#C0_0_3f3946fc83" x="71.741437" y="175.791513" style="fill: #54c568; stroke: #54c568"/>
    </g>
    <g clip-path="url(#p466d84333d)">
     <use xlink:href="#C0_0_3f3946fc83" x="57.782916" y="175.791513" style="fill: #54c568; stroke: #54c568"/>
    </g>
    <g clip-path="url(#p466d84333d)">
     <use xlink:href="#C0_0_3f3946fc83" x="329.90754" y="173.669398" style="fill: #440154; stroke: #440154"/>
    </g>
    <g clip-path="url(#p466d84333d)">
     <use xlink:href="#C0_0_3f3946fc83" x="333.467644" y="171.547283" style="fill: #440154; stroke: #440154"/>
    </g>
    <g clip-path="url(#p466d84333d)">
     <use xlink:href="#C0_0_3f3946fc83" x="285.730997" y="163.058822" style="fill: #443b84; stroke: #443b84"/>
    </g>
    <g clip-path="url(#p466d84333d)">
     <use xlink:href="#C0_0_3f3946fc83" x="261.234673" y="160.936707" style="fill: #433d84; stroke: #433d84"/>
    </g>
    <g clip-path="url(#p466d84333d)">
     <use xlink:href="#C0_0_3f3946fc83" x="256.433333" y="158.814592" style="fill: #3f4889; stroke: #3f4889"/>
    </g>
    <g clip-path="url(#p466d84333d)">
     <use xlink:href="#C0_0_3f3946fc83" x="136.883647" y="154.570362" style="fill: #2f6c8e; stroke: #2f6c8e"/>
    </g>
    <g clip-path="url(#p466d84333d)">
     <use xlink:href="#C0_0_3f3946fc83" x="137.647828" y="143.959787" style="fill: #2f6c8e; stroke: #2f6c8e"/>
    </g>
    <g clip-path="url(#p466d84333d)">
     <use xlink:href="#C0_0_3f3946fc83" x="322.610145" y="126.982867" style="fill: #277e8e; stroke: #277e8e"/>
    </g>
    <g clip-path="url(#p466d84333d)">
     <use xlink:href="#C0_0_3f3946fc83" x="241.058415" y="120.616522" style="fill: #24878e; stroke: #24878e"/>
    </g>
    <g clip-path="url(#p466d84333d)">
     <use xlink:href="#C0_0_3f3946fc83" x="285.771834" y="118.494407" style="fill: #20a486; stroke: #20a486"/>
    </g>
    <g clip-path="url(#p466d84333d)">
     <use xlink:href="#C0_0_3f3946fc83" x="287.589264" y="116.372292" style="fill: #20a486; stroke: #20a486"/>
    </g>
    <g clip-path="url(#p466d84333d)">
     <use xlink:href="#C0_0_3f3946fc83" x="250.32174" y="116.372292" style="fill: #20a486; stroke: #20a486"/>
    </g>
    <g clip-path="url(#p466d84333d)">
     <use xlink:href="#C0_0_3f3946fc83" x="251.675025" y="205.501123" style="fill: #20a486; stroke: #20a486"/>
    </g>
    <g clip-path="url(#p466d84333d)">
     <use xlink:href="#C0_0_3f3946fc83" x="200.844612" y="203.379008" style="fill: #8bd646; stroke: #8bd646"/>
    </g>
    <g clip-path="url(#p466d84333d)">
     <use xlink:href="#C0_0_3f3946fc83" x="205.019385" y="203.379008" style="fill: #8bd646; stroke: #8bd646"/>
    </g>
    <g clip-path="url(#p466d84333d)">
     <use xlink:href="#C0_0_3f3946fc83" x="331.334147" y="201.256893" style="fill: #95d840; stroke: #95d840"/>
    </g>
    <g clip-path="url(#p466d84333d)">
     <use xlink:href="#C0_0_3f3946fc83" x="329.536798" y="201.256893" style="fill: #95d840; stroke: #95d840"/>
    </g>
    <g clip-path="url(#p466d84333d)">
     <use xlink:href="#C0_0_3f3946fc83" x="240.066844" y="199.134778" style="fill: #98d83e; stroke: #98d83e"/>
    </g>
    <g clip-path="url(#p466d84333d)">
     <use xlink:href="#C0_0_3f3946fc83" x="234.182894" y="129.104982" style="fill: #471063; stroke: #471063"/>
    </g>
    <g clip-path="url(#p466d84333d)">
     <use xlink:href="#C0_0_3f3946fc83" x="311.870771" y="126.982867" style="fill: #482576; stroke: #482576"/>
    </g>
    <g clip-path="url(#p466d84333d)">
     <use xlink:href="#C0_0_3f3946fc83" x="312.611411" y="126.982867" style="fill: #482576; stroke: #482576"/>
    </g>
    <g clip-path="url(#p466d84333d)">
     <use xlink:href="#C0_0_3f3946fc83" x="242.807586" y="226.722274" style="fill: #228d8d; stroke: #228d8d"/>
    </g>
    <g clip-path="url(#p466d84333d)">
     <use xlink:href="#C0_0_3f3946fc83" x="240.664301" y="228.844389" style="fill: #20a386; stroke: #20a386"/>
    </g>
    <g clip-path="url(#p466d84333d)">
     <use xlink:href="#C0_0_3f3946fc83" x="211.038589" y="233.088619" style="fill: #2fb47c; stroke: #2fb47c"/>
    </g>
    <g clip-path="url(#p466d84333d)">
     <use xlink:href="#C0_0_3f3946fc83" x="208.789582" y="241.577079" style="fill: #32b67a; stroke: #32b67a"/>
    </g>
    <g clip-path="url(#p466d84333d)">
     <use xlink:href="#C0_0_3f3946fc83" x="191.20388" y="243.699194" style="fill: #34b679; stroke: #34b679"/>
    </g>
    <g clip-path="url(#p466d84333d)">
     <use xlink:href="#C0_0_3f3946fc83" x="231.838544" y="245.821309" style="fill: #34b679; stroke: #34b679"/>
    </g>
    <g clip-path="url(#p466d84333d)">
     <use xlink:href="#C0_0_3f3946fc83" x="198.349063" y="245.821309" style="fill: #40bd72; stroke: #40bd72"/>
    </g>
    <g clip-path="url(#p466d84333d)">
     <use xlink:href="#C0_0_3f3946fc83" x="186.37689" y="247.943424" style="fill: #44bf70; stroke: #44bf70"/>
    </g>
    <g clip-path="url(#p466d84333d)">
     <use xlink:href="#C0_0_3f3946fc83" x="225.253862" y="247.943424" style="fill: #98d83e; stroke: #98d83e"/>
    </g>
    <g clip-path="url(#p466d84333d)">
     <use xlink:href="#C0_0_3f3946fc83" x="187.630276" y="235.210734" style="fill: #2e6d8e; stroke: #2e6d8e"/>
    </g>
    <g clip-path="url(#p466d84333d)">
     <use xlink:href="#C0_0_3f3946fc83" x="273.522997" y="233.088619" style="fill: #297b8e; stroke: #297b8e"/>
    </g>
    <g clip-path="url(#p466d84333d)">
     <use xlink:href="#C0_0_3f3946fc83" x="278.430733" y="233.088619" style="fill: #287d8e; stroke: #287d8e"/>
    </g>
    <g clip-path="url(#p466d84333d)">
     <use xlink:href="#C0_0_3f3946fc83" x="216.62495" y="233.088619" style="fill: #2db27d; stroke: #2db27d"/>
    </g>
    <g clip-path="url(#p466d84333d)">
     <use xlink:href="#C0_0_3f3946fc83" x="293.898632" y="233.088619" style="fill: #d2e21b; stroke: #d2e21b"/>
    </g>
    <g clip-path="url(#p466d84333d)">
     <use xlink:href="#C0_0_3f3946fc83" x="291.383424" y="233.088619" style="fill: #d2e21b; stroke: #d2e21b"/>
    </g>
    <g clip-path="url(#p466d84333d)">
     <use xlink:href="#C0_0_3f3946fc83" x="178.205458" y="233.088619" style="fill: #f6e620; stroke: #f6e620"/>
    </g>
    <g clip-path="url(#p466d84333d)">
     <use xlink:href="#C0_0_3f3946fc83" x="180.971934" y="233.088619" style="fill: #f6e620; stroke: #f6e620"/>
    </g>
    <g clip-path="url(#p466d84333d)">
     <use xlink:href="#C0_0_3f3946fc83" x="270.009806" y="235.210734" style="fill: #460b5e; stroke: #460b5e"/>
    </g>
    <g clip-path="url(#p466d84333d)">
     <use xlink:href="#C0_0_3f3946fc83" x="274.219763" y="235.210734" style="fill: #460b5e; stroke: #460b5e"/>
    </g>
    <g clip-path="url(#p466d84333d)">
     <use xlink:href="#C0_0_3f3946fc83" x="124.659869" y="294.629955" style="fill: #3f4788; stroke: #3f4788"/>
    </g>
    <g clip-path="url(#p466d84333d)">
     <use xlink:href="#C0_0_3f3946fc83" x="234.9653" y="298.874185" style="fill: #3f4889; stroke: #3f4889"/>
    </g>
    <g clip-path="url(#p466d84333d)">
     <use xlink:href="#C0_0_3f3946fc83" x="235.491123" y="298.874185" style="fill: #3f4889; stroke: #3f4889"/>
    </g>
    <g clip-path="url(#p466d84333d)">
     <use xlink:href="#C0_0_3f3946fc83" x="192.310538" y="298.874185" style="fill: #2a788e; stroke: #2a788e"/>
    </g>
    <g clip-path="url(#p466d84333d)">
     <use xlink:href="#C0_0_3f3946fc83" x="321.269601" y="298.874185" style="fill: #26818e; stroke: #26818e"/>
    </g>
    <g clip-path="url(#p466d84333d)">
     <use xlink:href="#C0_0_3f3946fc83" x="290.767489" y="298.874185" style="fill: #25858e; stroke: #25858e"/>
    </g>
    <g clip-path="url(#p466d84333d)">
     <use xlink:href="#C0_0_3f3946fc83" x="287.490715" y="298.874185" style="fill: #cde11d; stroke: #cde11d"/>
    </g>
    <g clip-path="url(#p466d84333d)">
     <use xlink:href="#C0_0_3f3946fc83" x="291.676035" y="267.04246" style="fill: #cde11d; stroke: #cde11d"/>
    </g>
    <g clip-path="url(#p466d84333d)">
     <use xlink:href="#C0_0_3f3946fc83" x="202.566446" y="165.180938" style="fill: #fde725; stroke: #fde725"/>
    </g>
    <g clip-path="url(#p466d84333d)">
     <use xlink:href="#C0_0_3f3946fc83" x="308.888971" y="218.233814" style="fill: #31678e; stroke: #31678e"/>
    </g>
    <g clip-path="url(#p466d84333d)">
     <use xlink:href="#C0_0_3f3946fc83" x="187.913606" y="222.478044" style="fill: #2c728e; stroke: #2c728e"/>
    </g>
    <g clip-path="url(#p466d84333d)">
     <use xlink:href="#C0_0_3f3946fc83" x="193.273084" y="124.860752" style="fill: #2c728e; stroke: #2c728e"/>
    </g>
    <g clip-path="url(#p466d84333d)">
     <use xlink:href="#C0_0_3f3946fc83" x="104.704758" y="124.860752" style="fill: #1e9b8a; stroke: #1e9b8a"/>
    </g>
    <g clip-path="url(#p466d84333d)">
     <use xlink:href="#C0_0_3f3946fc83" x="109.226227" y="122.738637" style="fill: #1e9b8a; stroke: #1e9b8a"/>
    </g>
    <g clip-path="url(#p466d84333d)">
     <use xlink:href="#C0_0_3f3946fc83" x="291.982484" y="122.738637" style="fill: #1f9f88; stroke: #1f9f88"/>
    </g>
    <g clip-path="url(#p466d84333d)">
     <use xlink:href="#C0_0_3f3946fc83" x="293.593365" y="120.616522" style="fill: #1fa088; stroke: #1fa088"/>
    </g>
    <g clip-path="url(#p466d84333d)">
     <use xlink:href="#C0_0_3f3946fc83" x="240.937169" y="120.616522" style="fill: #24aa83; stroke: #24aa83"/>
    </g>
    <g clip-path="url(#p466d84333d)">
     <use xlink:href="#C0_0_3f3946fc83" x="245.181214" y="267.04246" style="fill: #24aa83; stroke: #24aa83"/>
    </g>
    <g clip-path="url(#p466d84333d)">
     <use xlink:href="#C0_0_3f3946fc83" x="231.683126" y="269.164575" style="fill: #86d549; stroke: #86d549"/>
    </g>
    <g clip-path="url(#p466d84333d)">
     <use xlink:href="#C0_0_3f3946fc83" x="216.266442" y="271.28669" style="fill: #aadc32; stroke: #aadc32"/>
    </g>
    <g clip-path="url(#p466d84333d)">
     <use xlink:href="#C0_0_3f3946fc83" x="218.847041" y="271.28669" style="fill: #cde11d; stroke: #cde11d"/>
    </g>
    <g clip-path="url(#p466d84333d)">
     <use xlink:href="#C0_0_3f3946fc83" x="217.525312" y="273.408805" style="fill: #f6e620; stroke: #f6e620"/>
    </g>
    <g clip-path="url(#p466d84333d)">
     <use xlink:href="#C0_0_3f3946fc83" x="252.773245" y="273.408805" style="fill: #404688; stroke: #404688"/>
    </g>
    <g clip-path="url(#p466d84333d)">
     <use xlink:href="#C0_0_3f3946fc83" x="356.466487" y="275.53092" style="fill: #3d4e8a; stroke: #3d4e8a"/>
    </g>
    <g clip-path="url(#p466d84333d)">
     <use xlink:href="#C0_0_3f3946fc83" x="358.123943" y="275.53092" style="fill: #3d4e8a; stroke: #3d4e8a"/>
    </g>
    <g clip-path="url(#p466d84333d)">
     <use xlink:href="#C0_0_3f3946fc83" x="206.657435" y="279.77515" style="fill: #38598c; stroke: #38598c"/>
    </g>
    <g clip-path="url(#p466d84333d)">
     <use xlink:href="#C0_0_3f3946fc83" x="346.646965" y="281.897265" style="fill: #32648e; stroke: #32648e"/>
    </g>
    <g clip-path="url(#p466d84333d)">
     <use xlink:href="#C0_0_3f3946fc83" x="272.138747" y="281.897265" style="fill: #31678e; stroke: #31678e"/>
    </g>
    <g clip-path="url(#p466d84333d)">
     <use xlink:href="#C0_0_3f3946fc83" x="200.945187" y="218.233814" style="fill: #46c06f; stroke: #46c06f"/>
    </g>
    <g clip-path="url(#p466d84333d)">
     <use xlink:href="#C0_0_3f3946fc83" x="194.538957" y="220.355929" style="fill: #48c16e; stroke: #48c16e"/>
    </g>
    <g clip-path="url(#p466d84333d)">
     <use xlink:href="#C0_0_3f3946fc83" x="307.140559" y="220.355929" style="fill: #440256; stroke: #440256"/>
    </g>
    <g clip-path="url(#p466d84333d)">
     <use xlink:href="#C0_0_3f3946fc83" x="291.643804" y="222.478044" style="fill: #440256; stroke: #440256"/>
    </g>
    <g clip-path="url(#p466d84333d)">
     <use xlink:href="#C0_0_3f3946fc83" x="282.706166" y="222.478044" style="fill: #450457; stroke: #450457"/>
    </g>
    <g clip-path="url(#p466d84333d)">
     <use xlink:href="#C0_0_3f3946fc83" x="252.405034" y="224.600159" style="fill: #450457; stroke: #450457"/>
    </g>
    <g clip-path="url(#p466d84333d)">
     <use xlink:href="#C0_0_3f3946fc83" x="277.897317" y="230.966504" style="fill: #450457; stroke: #450457"/>
    </g>
    <g clip-path="url(#p466d84333d)">
     <use xlink:href="#C0_0_3f3946fc83" x="344.787685" y="216.111699" style="fill: #375a8c; stroke: #375a8c"/>
    </g>
    <g clip-path="url(#p466d84333d)">
     <use xlink:href="#C0_0_3f3946fc83" x="354.194615" y="218.233814" style="fill: #375a8c; stroke: #375a8c"/>
    </g>
    <g clip-path="url(#p466d84333d)">
     <use xlink:href="#C0_0_3f3946fc83" x="284.65252" y="220.355929" style="fill: #375b8d; stroke: #375b8d"/>
    </g>
    <g clip-path="url(#p466d84333d)">
     <use xlink:href="#C0_0_3f3946fc83" x="273.793165" y="224.600159" style="fill: #375b8d; stroke: #375b8d"/>
    </g>
    <g clip-path="url(#p466d84333d)">
     <use xlink:href="#C0_0_3f3946fc83" x="173.605268" y="226.722274" style="fill: #2f6c8e; stroke: #2f6c8e"/>
    </g>
    <g clip-path="url(#p466d84333d)">
     <use xlink:href="#C0_0_3f3946fc83" x="178.32333" y="228.844389" style="fill: #2f6c8e; stroke: #2f6c8e"/>
    </g>
    <g clip-path="url(#p466d84333d)">
     <use xlink:href="#C0_0_3f3946fc83" x="285.448342" y="230.966504" style="fill: #2a778e; stroke: #2a778e"/>
    </g>
    <g clip-path="url(#p466d84333d)">
     <use xlink:href="#C0_0_3f3946fc83" x="284.119441" y="230.966504" style="fill: #2a788e; stroke: #2a788e"/>
    </g>
    <g clip-path="url(#p466d84333d)">
     <use xlink:href="#C0_0_3f3946fc83" x="240.653248" y="233.088619" style="fill: #65cb5e; stroke: #65cb5e"/>
    </g>
    <g clip-path="url(#p466d84333d)">
     <use xlink:href="#C0_0_3f3946fc83" x="194.338567" y="233.088619" style="fill: #e7e419; stroke: #e7e419"/>
    </g>
    <g clip-path="url(#p466d84333d)">
     <use xlink:href="#C0_0_3f3946fc83" x="59.619246" y="86.662681" style="fill: #3f4889; stroke: #3f4889"/>
    </g>
    <g clip-path="url(#p466d84333d)">
     <use xlink:href="#C0_0_3f3946fc83" x="73.529083" y="126.982867" style="fill: #3e4989; stroke: #3e4989"/>
    </g>
    <g clip-path="url(#p466d84333d)">
     <use xlink:href="#C0_0_3f3946fc83" x="278.761651" y="126.982867" style="fill: #38588c; stroke: #38588c"/>
    </g>
    <g clip-path="url(#p466d84333d)">
     <use xlink:href="#C0_0_3f3946fc83" x="275.156997" y="31.48769" style="fill: #38598c; stroke: #38598c"/>
    </g>
    <g clip-path="url(#p466d84333d)">
     <use xlink:href="#C0_0_3f3946fc83" x="195.150926" y="90.906911" style="fill: #7cd250; stroke: #7cd250"/>
    </g>
   </g>
   <g id="matplotlib.axis_1">
    <g id="xtick_1">
     <g id="line2d_1">
      <defs>
       <path id="m350c7439ec" d="M 0 0 
L 0 3.5 
" style="stroke: #000000; stroke-width: 0.8"/>
      </defs>
      <g>
       <use xlink:href="#m350c7439ec" x="59.469566" y="312.24351" style="stroke: #000000; stroke-width: 0.8"/>
      </g>
     </g>
     <g id="text_1">
      <text style="font: 10px 'Helvetica Neue', sans-serif; text-anchor: middle" x="59.469566" y="326.841947" transform="rotate(-0 59.469566 326.841947)">110</text>
     </g>
    </g>
    <g id="xtick_2">
     <g id="line2d_2">
      <g>
       <use xlink:href="#m350c7439ec" x="114.765338" y="312.24351" style="stroke: #000000; stroke-width: 0.8"/>
      </g>
     </g>
     <g id="text_2">
      <text style="font: 10px 'Helvetica Neue', sans-serif; text-anchor: middle" x="114.765338" y="326.841947" transform="rotate(-0 114.765338 326.841947)">115</text>
     </g>
    </g>
    <g id="xtick_3">
     <g id="line2d_3">
      <g>
       <use xlink:href="#m350c7439ec" x="170.061111" y="312.24351" style="stroke: #000000; stroke-width: 0.8"/>
      </g>
     </g>
     <g id="text_3">
      <text style="font: 10px 'Helvetica Neue', sans-serif; text-anchor: middle" x="170.061111" y="326.841947" transform="rotate(-0 170.061111 326.841947)">120</text>
     </g>
    </g>
    <g id="xtick_4">
     <g id="line2d_4">
      <g>
       <use xlink:href="#m350c7439ec" x="225.356883" y="312.24351" style="stroke: #000000; stroke-width: 0.8"/>
      </g>
     </g>
     <g id="text_4">
      <text style="font: 10px 'Helvetica Neue', sans-serif; text-anchor: middle" x="225.356883" y="326.841947" transform="rotate(-0 225.356883 326.841947)">125</text>
     </g>
    </g>
    <g id="xtick_5">
     <g id="line2d_5">
      <g>
       <use xlink:href="#m350c7439ec" x="280.652655" y="312.24351" style="stroke: #000000; stroke-width: 0.8"/>
      </g>
     </g>
     <g id="text_5">
      <text style="font: 10px 'Helvetica Neue', sans-serif; text-anchor: middle" x="280.652655" y="326.841947" transform="rotate(-0 280.652655 326.841947)">130</text>
     </g>
    </g>
    <g id="xtick_6">
     <g id="line2d_6">
      <g>
       <use xlink:href="#m350c7439ec" x="335.948428" y="312.24351" style="stroke: #000000; stroke-width: 0.8"/>
      </g>
     </g>
     <g id="text_6">
      <text style="font: 10px 'Helvetica Neue', sans-serif; text-anchor: middle" x="335.948428" y="326.841947" transform="rotate(-0 335.948428 326.841947)">135</text>
     </g>
    </g>
    <g id="text_7">
     <text style="font: 10px 'Helvetica Neue', sans-serif; text-anchor: middle" x="207.95343" y="340.520072" transform="rotate(-0 207.95343 340.520072)">Eye center X coordinate for right eye</text>
    </g>
   </g>
   <g id="matplotlib.axis_2">
    <g id="ytick_1">
     <g id="line2d_7">
      <defs>
       <path id="mef05380383" d="M 0 0 
L -3.5 0 
" style="stroke: #000000; stroke-width: 0.8"/>
      </defs>
      <g>
       <use xlink:href="#mef05380383" x="42.765865" y="273.408805" style="stroke: #000000; stroke-width: 0.8"/>
      </g>
     </g>
     <g id="text_8">
      <text style="font: 10px 'Helvetica Neue', sans-serif; text-anchor: end" x="35.765865" y="277.208023" transform="rotate(-0 35.765865 277.208023)">140</text>
     </g>
    </g>
    <g id="ytick_2">
     <g id="line2d_8">
      <g>
       <use xlink:href="#mef05380383" x="42.765865" y="230.966504" style="stroke: #000000; stroke-width: 0.8"/>
      </g>
     </g>
     <g id="text_9">
      <text style="font: 10px 'Helvetica Neue', sans-serif; text-anchor: end" x="35.765865" y="234.765723" transform="rotate(-0 35.765865 234.765723)">160</text>
     </g>
    </g>
    <g id="ytick_3">
     <g id="line2d_9">
      <g>
       <use xlink:href="#mef05380383" x="42.765865" y="188.524203" style="stroke: #000000; stroke-width: 0.8"/>
      </g>
     </g>
     <g id="text_10">
      <text style="font: 10px 'Helvetica Neue', sans-serif; text-anchor: end" x="35.765865" y="192.323422" transform="rotate(-0 35.765865 192.323422)">180</text>
     </g>
    </g>
    <g id="ytick_4">
     <g id="line2d_10">
      <g>
       <use xlink:href="#mef05380383" x="42.765865" y="146.081902" style="stroke: #000000; stroke-width: 0.8"/>
      </g>
     </g>
     <g id="text_11">
      <text style="font: 10px 'Helvetica Neue', sans-serif; text-anchor: end" x="35.765865" y="149.881121" transform="rotate(-0 35.765865 149.881121)">200</text>
     </g>
    </g>
    <g id="ytick_5">
     <g id="line2d_11">
      <g>
       <use xlink:href="#mef05380383" x="42.765865" y="103.639601" style="stroke: #000000; stroke-width: 0.8"/>
      </g>
     </g>
     <g id="text_12">
      <text style="font: 10px 'Helvetica Neue', sans-serif; text-anchor: end" x="35.765865" y="107.43882" transform="rotate(-0 35.765865 107.43882)">220</text>
     </g>
    </g>
    <g id="ytick_6">
     <g id="line2d_12">
      <g>
       <use xlink:href="#mef05380383" x="42.765865" y="61.1973" style="stroke: #000000; stroke-width: 0.8"/>
      </g>
     </g>
     <g id="text_13">
      <text style="font: 10px 'Helvetica Neue', sans-serif; text-anchor: end" x="35.765865" y="64.996519" transform="rotate(-0 35.765865 64.996519)">240</text>
     </g>
    </g>
    <g id="ytick_7">
     <g id="line2d_13">
      <g>
       <use xlink:href="#mef05380383" x="42.765865" y="18.755" style="stroke: #000000; stroke-width: 0.8"/>
      </g>
     </g>
     <g id="text_14">
      <text style="font: 10px 'Helvetica Neue', sans-serif; text-anchor: end" x="35.765865" y="22.554218" transform="rotate(-0 35.765865 22.554218)">260</text>
     </g>
    </g>
    <g id="text_15">
     <text style="font: 10px 'Helvetica Neue', sans-serif; text-anchor: middle" x="10.598678" y="165.180937" transform="rotate(-90 10.598678 165.180937)">Fisher information X coordinate for right eye</text>
    </g>
   </g>
   <g id="line2d_14">
    <path d="M 57.782916 182.004416 
L 358.123943 222.779167 
L 358.123943 222.779167 
" clip-path="url(#p466d84333d)" style="fill: none; stroke: #ff0000; stroke-width: 1.5; stroke-linecap: square"/>
   </g>
   <g id="patch_3">
    <path d="M 42.765865 312.24351 
L 42.765865 18.118365 
" style="fill: none; stroke: #000000; stroke-width: 0.8; stroke-linejoin: miter; stroke-linecap: square"/>
   </g>
   <g id="patch_4">
    <path d="M 42.765865 312.24351 
L 373.140994 312.24351 
" style="fill: none; stroke: #000000; stroke-width: 0.8; stroke-linejoin: miter; stroke-linecap: square"/>
   </g>
   <g id="text_16">
    <text style="font: 12px 'Helvetica Neue', sans-serif; text-anchor: middle" x="207.95343" y="12.118365" transform="rotate(-0 207.95343 12.118365)">Eye center X coordinate vs Fisher information X coordinate</text>
   </g>
  </g>
  <g id="axes_2">
   <g id="patch_5">
    <path d="M 389.659751 312.24351 
L 404.366008 312.24351 
L 404.366008 18.118365 
L 389.659751 18.118365 
z
" style="fill: #ffffff"/>
   </g>
   <image xlink:href="data:image/png;base64,
iVBORw0KGgoAAAANSUhEUgAAABUAAAGZCAYAAABmEnqBAAACDUlEQVR4nO2d240DMQwDZe+WlhLSfymXa4LzMaBcACGGD2sXQXI+5/ub8LlpwJmZd04el5n03JMHXfpxUMinDP08KKW+RijgM32nnb7Gp1so6aPyqUb9cqE89NtjqklUu1Dd9DUbCiLUTyQUAeqhXz3p+lRDXzMpYSlEfY9QppjmB1UJ1e7TOKaIvidRpkIh7n0RfUb9PGh7TInP1HSbEm97TD7Ng6p8ujENHw99T/Or6AOgpqeTPKgnUduneVAPfU+iln4e1EPf9PpYRB8A9dD3TFou1NKPH0+iyoUy0QdA16f5U+/TbvqeSVeoPGj3MrE+zZ/1aR4UmdRjfo9QHvXbhSqnPyf/eLY+lYB6hBLRN02az74npu3qa4RifOoRqvw68Wwo9ftpdUyB7wysUMCB+nSqW+pUlzRVKNUxJfpUtEx4EoUI5aFf3qcAe1GiTEIRPr0i+s2Tip5OCEuJ1L+aB4ktlDxoN31RoZhiWu3T7klN9IFEmehXT2qi3+7Tvzioyaeaex+KqUX9p119i1CIT59qoUTXCRFT6t7vFqqcvqdPif1URJ/o0+7rhCqU7v20vE8B+p7mFz1IQPQ96muEYgpFIxRB36O+KVHIgmahX76eizZpplCahdr9NH9WqPLXxwCoiD4ASq09BCjw5XOPUO+j+YnyqxGKsJSJPvHTzxcYtt6nwJ9Qe4T6Bx3/jjSi0+siAAAAAElFTkSuQmCC" id="imagee07ba22e94" transform="scale(1 -1) translate(0 -294.48)" x="389.52" y="-18" width="15.12" height="294.48"/>
   <g id="matplotlib.axis_3"/>
   <g id="matplotlib.axis_4">
    <g id="ytick_8">
     <g id="line2d_15">
      <defs>
       <path id="m4d6d781a69" d="M 0 0 
L 3.5 0 
" style="stroke: #000000; stroke-width: 0.8"/>
      </defs>
      <g>
       <use xlink:href="#m4d6d781a69" x="404.366008" y="312.24351" style="stroke: #000000; stroke-width: 0.8"/>
      </g>
     </g>
     <g id="text_17">
      <text style="font: 10px 'Helvetica Neue', sans-serif; text-anchor: start" x="411.366008" y="316.042729" transform="rotate(-0 411.366008 316.042729)">0</text>
     </g>
    </g>
    <g id="ytick_9">
     <g id="line2d_16">
      <g>
       <use xlink:href="#m4d6d781a69" x="404.366008" y="270.015766" style="stroke: #000000; stroke-width: 0.8"/>
      </g>
     </g>
     <g id="text_18">
      <text style="font: 10px 'Helvetica Neue', sans-serif; text-anchor: start" x="411.366008" y="273.814984" transform="rotate(-0 411.366008 273.814984)">2000</text>
     </g>
    </g>
    <g id="ytick_10">
     <g id="line2d_17">
      <g>
       <use xlink:href="#m4d6d781a69" x="404.366008" y="227.788021" style="stroke: #000000; stroke-width: 0.8"/>
      </g>
     </g>
     <g id="text_19">
      <text style="font: 10px 'Helvetica Neue', sans-serif; text-anchor: start" x="411.366008" y="231.58724" transform="rotate(-0 411.366008 231.58724)">4000</text>
     </g>
    </g>
    <g id="ytick_11">
     <g id="line2d_18">
      <g>
       <use xlink:href="#m4d6d781a69" x="404.366008" y="185.560277" style="stroke: #000000; stroke-width: 0.8"/>
      </g>
     </g>
     <g id="text_20">
      <text style="font: 10px 'Helvetica Neue', sans-serif; text-anchor: start" x="411.366008" y="189.359496" transform="rotate(-0 411.366008 189.359496)">6000</text>
     </g>
    </g>
    <g id="ytick_12">
     <g id="line2d_19">
      <g>
       <use xlink:href="#m4d6d781a69" x="404.366008" y="143.332533" style="stroke: #000000; stroke-width: 0.8"/>
      </g>
     </g>
     <g id="text_21">
      <text style="font: 10px 'Helvetica Neue', sans-serif; text-anchor: start" x="411.366008" y="147.131751" transform="rotate(-0 411.366008 147.131751)">8000</text>
     </g>
    </g>
    <g id="ytick_13">
     <g id="line2d_20">
      <g>
       <use xlink:href="#m4d6d781a69" x="404.366008" y="101.104788" style="stroke: #000000; stroke-width: 0.8"/>
      </g>
     </g>
     <g id="text_22">
      <text style="font: 10px 'Helvetica Neue', sans-serif; text-anchor: start" x="411.366008" y="104.904007" transform="rotate(-0 411.366008 104.904007)">10000</text>
     </g>
    </g>
    <g id="ytick_14">
     <g id="line2d_21">
      <g>
       <use xlink:href="#m4d6d781a69" x="404.366008" y="58.877044" style="stroke: #000000; stroke-width: 0.8"/>
      </g>
     </g>
     <g id="text_23">
      <text style="font: 10px 'Helvetica Neue', sans-serif; text-anchor: start" x="411.366008" y="62.676263" transform="rotate(-0 411.366008 62.676263)">12000</text>
     </g>
    </g>
    <g id="text_24">
     <text style="font: 10px 'Helvetica Neue', sans-serif; text-anchor: middle" x="454.776945" y="165.180937" transform="rotate(-90 454.776945 165.180937)">Position in the track (cm)</text>
    </g>
   </g>
   <g id="LineCollection_1"/>
   <g id="patch_6">
    <path d="M 389.659751 312.24351 
L 397.012879 312.24351 
L 404.366008 312.24351 
L 404.366008 18.118365 
L 397.012879 18.118365 
L 389.659751 18.118365 
L 389.659751 312.24351 
z
" style="fill: none; stroke: #000000; stroke-width: 0.8; stroke-linejoin: miter; stroke-linecap: square"/>
   </g>
  </g>
 </g>
 <defs>
  <clipPath id="p466d84333d">
   <rect x="42.765865" y="18.118365" width="330.375129" height="294.125145"/>
  </clipPath>
 </defs>
</svg>
